{
	"tests" :
	{
		"platform skip (require)" :
		{
			"__type__" : "TestResult",
			"command" : "tests/bin/gltest.py -auto",
			"err" : "",
			"out" : "Skipped due to incompatible platform",
			"result" : "skip",
			"returncode" : 0,
			"subtests" : {}
		},
		"platform skip (exclude)" :
		{
			"__type__" : "TestResult",
			"command" : "tests/bin/gltest.py -auto",
			"err" : "",
			"out" : "Skipped due to incompatible platform",
			"result" : "skip",
			"returncode" : 0,
			"subtests" : {}
		}
	}
}
